CO2 Emissions Responsibility Redesign
…
write_csv(plot_data, file.path(cleaned_dir, "co2_metric_comparison_long.csv"))

plot_data |>
  arrange(metric, rank) |>
  select(metric, rank, country, value, unit)

# A tibble: 36 × 5
   metric                      rank country                value unit  
   <fct>                      <int> <chr>                  <dbl> <chr> 
 1 Annual territorial CO2         1 China                12.2    Gt CO2
 2 Annual territorial CO2         2 United States         4.92   Gt CO2
 3 Annual territorial CO2         3 India                 3.06   Gt CO2
 4 Annual territorial CO2         4 European Union (27)   2.48   Gt CO2
 5 Annual territorial CO2         5 Russia                1.73   Gt CO2
 6 Annual territorial CO2         6 Japan                 0.987  Gt CO2
 7 Annual territorial CO2         7 Germany               0.594  Gt CO2
 8 Annual territorial CO2         8 United Kingdom        0.308  Gt CO2
 9 Annual territorial CO2         9 Singapore             0.0511 Gt CO2
10 Cumulative territorial CO2     1 United States       430.     Gt CO2
# ℹ 26 more rows
…
